INDEX VERSION 1.126+C:\Users\102827\SparkleShare\c306\.metadata\.plugins\org.eclipse.jdt.core
485915667.index
242316947.index
310276667.index
202718518.index
3315397219.index
4110329940.index
4212555737.index
2247423980.index
2173651854.index
914948070.index
2667753014.index
2355123077.index
4136139544.index
535551533.index
1480653168.index
3917384095.index
1724544202.index
2972251282.index
2409789736.index
2262994839.index
1870736034.index
1760358075.index
1923802118.index
411441716.index
1621782374.index
