<?xml version="1.0" encoding="UTF-8"?>
<session version="1.0">
<refactoring accessors="true" comment="Delete element from project &apos;DSA - P03&apos;&#x0D;&#x0A;- Original project: &apos;DSA - P03&apos;&#x0D;&#x0A;- Original element: &apos;GUIMenu.java&apos;" description="Delete element" element1="/src&lt;{GUIMenu.java" elements="1" flags="589830" id="org.eclipse.jdt.ui.delete" resources="0" stamp="1352171610839" subPackages="false" version="1.0"/>
</session>